﻿{
  "configurations": [
    {
      "name": "x64-Debug",
      "generator": "Visual Studio 14 2015 Win64",
      "configurationType": "Debug",
      "inheritEnvironments": [ "msvc_x64_x64" ],
      "buildRoot": "${projectDir}\\out\\build\\${name}",
      "installRoot": "${projectDir}\\out\\install\\${name}",
      "cmakeCommandArgs": "",
      "ctestCommandArgs": "",
      "variables": []
    }
  ]
}